…
## # A tibble: 5 × 9
##   artist_name album_name track_number song_id song_name line_number section_name
##   <chr>       <chr>             <dbl>   <dbl> <chr>           <dbl> <chr>       
## 1 Spice Girls Spice                 1   89740 Wannabe             1 Intro       
## 2 Spice Girls Spice                 1   89740 Wannabe             2 Intro       
## 3 Spice Girls Spice                 1   89740 Wannabe             3 Intro       
## 4 Spice Girls Spice                 1   89740 Wannabe             4 Intro       
## 5 Spice Girls Spice                 1   89740 Wannabe             5 Intro       
## # … with 2 more variables: line <chr>, section_artist <chr>

lyrics %>% distinct(album_name, song_name)

## # A tibble: 31 × 2
##    album_name song_name                 
##    <chr>      <chr>                     
##  1 Spice      "Wannabe"                 
##  2 Spice      "Say You\x92ll Be There"  
##  3 Spice      "2 Become 1"              
##  4 Spice      "Love Thing"              
##  5 Spice      "Last Time Lover"         
##  6 Spice      "Mama"                    
##  7 Spice      "Who Do You Think You Are"
##  8 Spice      "Something Kinda Funny"   
##  9 Spice      "Naked"                   
## 10 Spice      "If U Can\x92t Dance"     
## # … with 21 more rows
…
Change  to ’

Split words in line column into tokens

Anti-Join each word into it’s own row

tidy_lyrics <-
  lyrics %>%
  mutate(song_name = str_replace_all(song_name, "\x92", "'")) %>%
  unnest_tokens(word, line) %>%
  anti_join(get_stopwords())
tidy_lyrics

## # A tibble: 6,663 × 9
##    artist_name album_name track_number song_id song_name line_number
##    <chr>       <chr>             <dbl>   <dbl> <chr>           <dbl>
##  1 Spice Girls Spice                 1   89740 Wannabe             1
##  2 Spice Girls Spice                 1   89740 Wannabe             2
##  3 Spice Girls Spice                 1   89740 Wannabe             2
##  4 Spice Girls Spice                 1   89740 Wannabe             2
##  5 Spice Girls Spice                 1   89740 Wannabe             2
##  6 Spice Girls Spice                 1   89740 Wannabe             2
##  7 Spice Girls Spice                 1   89740 Wannabe             2
##  8 Spice Girls Spice                 1   89740 Wannabe             3
##  9 Spice Girls Spice                 1   89740 Wannabe             3
## 10 Spice Girls Spice                 1   89740 Wannabe             3
## # … with 6,653 more rows, and 3 more variables: section_name <chr>,
## #   section_artist <chr>, word <chr>

Most Common Words

Long Way

tidy_lyrics %>%
  group_by(word) %>%
  summarise(n = n()) %>% 
  arrange(-n)

## # A tibble: 979 × 2
##    word      n
##    <chr> <int>
##  1 get     153
##  2 love    137
##  3 know    124
##  4 time    106
##  5 wanna   102
##  6 never   101
##  7 oh       88
##  8 yeah     88
##  9 la       85
## 10 got      82
## # … with 969 more rows

Short Way

tidy_lyrics %>%
  count(word, sort = TRUE)

## # A tibble: 979 × 2
##    word      n
##    <chr> <int>
##  1 get     153
##  2 love    137
##  3 know    124
##  4 time    106
##  5 wanna   102
##  6 never   101
##  7 oh       88
##  8 yeah     88
##  9 la       85
## 10 got      82
## # … with 969 more rows
…
<img src="{{< blogdown/postref >}}index.en_files/figure-html/unnamed-chunk-3-1.png" width="672" />

Most Common Word Per Song

# Most Common Word per Song
tidy_lyrics %>%
  count(song_name, word, sort = TRUE)

## # A tibble: 2,206 × 3
##    song_name                       word           n
##    <chr>                           <chr>      <int>
##  1 Saturday Night Divas            get           91
##  2 Spice Up Your Life              la            64
##  3 If U Can't Dance                dance         60
##  4 Holler                          holler        48
##  5 Never Give Up on the Good Times never         47
##  6 Move Over                       generation    41
##  7 Saturday Night Divas            deeper        41
##  8 Move Over                       yeah          39
##  9 Something Kinda Funny           got           39
## 10 Never Give Up on the Good Times give          38
## # … with 2,196 more rows
…
Explore topic model results

word_topics <- tidy(topic_model, matrix = "beta")
word_topics 

## # A tibble: 3,916 × 3
##    topic term        beta
##    <int> <chr>      <dbl>
##  1     1 achieve 1.94e- 3
##  2     2 achieve 8.51e-29
##  3     3 achieve 1.00e-25
##  4     4 achieve 9.51e-19
##  5     1 baby    1.38e- 2
##  6     2 baby    1.44e- 2
##  7     3 baby    1.28e- 3
##  8     4 baby    4.16e- 3
##  9     1 back    2.31e- 2
## 10     2 back    5.44e- 4
## # … with 3,906 more rows
…
<img src="{{< blogdown/postref >}}index.en_files/figure-html/unnamed-chunk-8-1.png" width="672" />

Gamma Matrix

song_topics <- tidy(topic_model,
  matrix = "gamma",
  document_names = rownames(lyrics_sparse)
)
song_topics

## # A tibble: 124 × 3
##    document                   topic    gamma
##    <chr>                      <int>    <dbl>
##  1 2 Become 1                     1 0.932   
##  2 Denying                        1 0.00154 
##  3 Do It                          1 0.996   
##  4 Get Down With Me               1 0.300   
##  5 Goodbye                        1 0.000971
##  6 Holler                         1 0.00155 
##  7 If U Can't Dance               1 0.000896
##  8 If You Wanna Have Some Fun     1 0.0171  
##  9 Last Time Lover                1 0.140   
## 10 Let Love Lead the Way          1 0.00178 
## # … with 114 more rows
…
